<?xml version="1.0" encoding="UTF-8"?>
<session version="1.0">
<refactoring comment="Move element &apos;bookmarks.csv&apos; to &apos;MySQL/src&apos;&#x0A;- Original project: &apos;Book&apos;&#x0A;- Destination element: &apos;MySQL/src&apos;&#x0A;- Original element: &apos;bookmarks.csv&apos;&#x0A;- Update references to refactored element" description="Move file" destination="=MySQL/src" element1="src/bookmarks.csv" files="1" flags="589830" folders="0" id="org.eclipse.jdt.ui.move" policy="org.eclipse.jdt.ui.moveResources" qualified="false" references="true" stamp="1417894385200" units="0" version="1.0"/>
</session>